{
    "data": [
        {
            "created_at": 1603492192,
            "device_type": "web",
            "end_time": 1603492884,
            "fitbit_id": null,
            "fitness_discipline": "stretching",
            "has_pedaling_metrics": false,
            "has_leaderboard_metrics": false,
            "id": "1234567890",
            "is_total_work_personal_record": false,
            "metrics_type": null,
            "name": "Stretching Workout",
            "peloton_id": "1234567890",
            "platform": "web",
            "start_time": 1603492263,
            "strava_id": null,
            "status": "COMPLETE",
            "timezone": "America/New_York",
            "title": null,
            "total_work": 0.0,
            "user_id": "1234567890",
            "workout_type": "class",
            "total_video_watch_time_seconds": 690,
            "total_video_buffering_seconds": 0,
            "v2_total_video_watch_time_seconds": null,
            "v2_total_video_buffering_seconds": null,
            "created": 1603492192,
            "device_time_created_at": 1603477792,
            "effort_zones": null
        },
        {
            "created_at": 1603491380,
            "device_type": "web",
            "end_time": 1603492157,
            "fitbit_id": null,
            "fitness_discipline": "strength",
            "has_pedaling_metrics": false,
            "has_leaderboard_metrics": false,
            "id": "1234567890",
            "is_total_work_personal_record": false,
            "metrics_type": null,
            "name": "Strength Workout",
            "peloton_id": "1234567890",
            "platform": "web",
            "start_time": 1603491468,
            "strava_id": null,
            "status": "COMPLETE",
            "timezone": "America/New_York",
            "title": null,
            "total_work": 0.0,
            "user_id": "1234567890",
            "workout_type": "class",
            "total_video_watch_time_seconds": 684,
            "total_video_buffering_seconds": 1,
            "v2_total_video_watch_time_seconds": null,
            "v2_total_video_buffering_seconds": null,
            "created": 1603491380,
            "device_time_created_at": 1603476980,
            "effort_zones": null
        },
        {
            "created_at": 1603489998,
            "device_type": "web",
            "end_time": 1603491341,
            "fitbit_id": null,
            "fitness_discipline": "strength",
            "has_pedaling_metrics": false,
            "has_leaderboard_metrics": false,
            "id": "1234567890",
            "is_total_work_personal_record": false,
            "metrics_type": null,
            "name": "Strength Workout",
            "peloton_id": "1234567890",
            "platform": "web",
            "start_time": 1603490069,
            "strava_id": null,
            "status": "COMPLETE",
            "timezone": "America/New_York",
            "title": null,
            "total_work": 0.0,
            "user_id": "1234567890",
            "workout_type": "class",
            "total_video_watch_time_seconds": 1301,
            "total_video_buffering_seconds": 1,
            "v2_total_video_watch_time_seconds": null,
            "v2_total_video_buffering_seconds": null,
            "created": 1603489998,
            "device_time_created_at": 1603475598,
            "effort_zones": null
        },
        {
            "created_at": 1603485216,
            "device_type": "web",
            "end_time": 1603485519,
            "fitbit_id": null,
            "fitness_discipline": "strength",
            "has_pedaling_metrics": false,
            "has_leaderboard_metrics": false,
            "id": "1234567890",
            "is_total_work_personal_record": false,
            "metrics_type": null,
            "name": "Strength Workout",
            "peloton_id": "1234567890",
            "platform": "web",
            "start_time": 1603485229,
            "strava_id": null,
            "status": "COMPLETE",
            "timezone": "America/New_York",
            "title": null,
            "total_work": 0.0,
            "user_id": "1234567890",
            "workout_type": "class",
            "total_video_watch_time_seconds": 307,
            "total_video_buffering_seconds": 1,
            "v2_total_video_watch_time_seconds": null,
            "v2_total_video_buffering_seconds": null,
            "created": 1603485216,
            "device_time_created_at": 1603470816,
            "effort_zones": null
        },
        {
            "created_at": 1603408451,
            "device_type": "web",
            "end_time": 1603409121,
            "fitbit_id": null,
            "fitness_discipline": "stretching",
            "has_pedaling_metrics": false,
            "has_leaderboard_metrics": false,
            "id": "1234567890",
            "is_total_work_personal_record": false,
            "metrics_type": null,
            "name": "Stretching Workout",
            "peloton_id": "1234567890",
            "platform": "web",
            "start_time": 1603408463,
            "strava_id": null,
            "status": "COMPLETE",
            "timezone": "America/New_York",
            "title": null,
            "total_work": 0.0,
            "user_id": "1234567890",
            "workout_type": "class",
            "total_video_watch_time_seconds": 617,
            "total_video_buffering_seconds": 1,
            "v2_total_video_watch_time_seconds": null,
            "v2_total_video_buffering_seconds": null,
            "created": 1603408451,
            "device_time_created_at": 1603394051,
            "effort_zones": null
        },
        {
            "created_at": 1603406900,
            "device_type": "home_bike_v1",
            "end_time": 1603408159,
            "fitbit_id": null,
            "fitness_discipline": "cycling",
            "has_pedaling_metrics": true,
            "has_leaderboard_metrics": true,
            "id": "1234567890",
            "is_total_work_personal_record": false,
            "metrics_type": "cycling",
            "name": "Cycling Workout",
            "peloton_id": "1234567890",
            "platform": "home_bike",
            "start_time": 1603406961,
            "strava_id": "4230727029",
            "status": "COMPLETE",
            "timezone": "America/New_York",
            "title": null,
            "total_work": 201429.48,
            "user_id": "1234567890",
            "workout_type": "class",
            "total_video_watch_time_seconds": 1231,
            "total_video_buffering_seconds": 0,
            "v2_total_video_watch_time_seconds": null,
            "v2_total_video_buffering_seconds": null,
            "created": 1603406900,
            "device_time_created_at": 1603392500,
            "effort_zones": null
        },
        {
            "created_at": 1603405081,
            "device_type": "web",
            "end_time": 1603405744,
            "fitbit_id": null,
            "fitness_discipline": "strength",
            "has_pedaling_metrics": false,
            "has_leaderboard_metrics": false,
            "id": "1234567890",
            "is_total_work_personal_record": false,
            "metrics_type": null,
            "name": "Strength Workout",
            "peloton_id": "1234567890",
            "platform": "web",
            "start_time": 1603405123,
            "strava_id": null,
            "status": "COMPLETE",
            "timezone": "America/New_York",
            "title": null,
            "total_work": 0.0,
            "user_id": "1234567890",
            "workout_type": "class",
            "total_video_watch_time_seconds": 660,
            "total_video_buffering_seconds": 1,
            "v2_total_video_watch_time_seconds": null,
            "v2_total_video_buffering_seconds": null,
            "created": 1603405081,
            "device_time_created_at": 1603390681,
            "effort_zones": null
        },
        {
            "created_at": 1603403267,
            "device_type": "web",
            "end_time": 1603404677,
            "fitbit_id": null,
            "fitness_discipline": "strength",
            "has_pedaling_metrics": false,
            "has_leaderboard_metrics": false,
            "id": "1234567890",
            "is_total_work_personal_record": false,
            "metrics_type": null,
            "name": "Strength Workout",
            "peloton_id": "1234567890",
            "platform": "web",
            "start_time": 1603403444,
            "strava_id": null,
            "status": "COMPLETE",
            "timezone": "America/New_York",
            "title": null,
            "total_work": 0.0,
            "user_id": "1234567890",
            "workout_type": "class",
            "total_video_watch_time_seconds": 1303,
            "total_video_buffering_seconds": 1,
            "v2_total_video_watch_time_seconds": null,
            "v2_total_video_buffering_seconds": null,
            "created": 1603403267,
            "device_time_created_at": 1603388867,
            "effort_zones": null
        },
        {
            "created_at": 1603323729,
            "device_type": "home_bike_v1",
            "end_time": 1603324031,
            "fitbit_id": null,
            "fitness_discipline": "stretching",
            "has_pedaling_metrics": false,
            "has_leaderboard_metrics": false,
            "id": "1234567890",
            "is_total_work_personal_record": false,
            "metrics_type": null,
            "name": "Stretching Workout",
            "peloton_id": "1234567890",
            "platform": "home_bike",
            "start_time": 1603323732,
            "strava_id": null,
            "status": "COMPLETE",
            "timezone": "America/New_York",
            "title": null,
            "total_work": 0.0,
            "user_id": "1234567890",
            "workout_type": "class",
            "total_video_watch_time_seconds": 301,
            "total_video_buffering_seconds": 0,
            "v2_total_video_watch_time_seconds": null,
            "v2_total_video_buffering_seconds": null,
            "created": 1603323729,
            "device_time_created_at": 1603309329,
            "effort_zones": null
        },
        {
            "created_at": 1603320536,
            "device_type": "home_bike_v1",
            "end_time": 1603323296,
            "fitbit_id": null,
            "fitness_discipline": "cycling",
            "has_pedaling_metrics": true,
            "has_leaderboard_metrics": true,
            "id": "1234567890",
            "is_total_work_personal_record": false,
            "metrics_type": "cycling",
            "name": "Cycling Workout",
            "peloton_id": "1234567890",
            "platform": "home_bike",
            "start_time": 1603320597,
            "strava_id": "4226519016",
            "status": "COMPLETE",
            "timezone": "America/New_York",
            "title": null,
            "total_work": 414421.49,
            "user_id": "1234567890",
            "workout_type": "class",
            "total_video_watch_time_seconds": 2731,
            "total_video_buffering_seconds": 0,
            "v2_total_video_watch_time_seconds": null,
            "v2_total_video_buffering_seconds": null,
            "created": 1603320536,
            "device_time_created_at": 1603306136,
            "effort_zones": null
        }
    ],
    "limit": 10,
    "page": 0,
    "total": 123,
    "count": 10,
    "page_count": 47,
    "show_previous": false,
    "show_next": true,
    "sort_by": "-created_at,-pk",
    "next": {
        "workout_id": "1234567890",
        "created_at": 1603320536
    },
    "summary": {
        "2020-10": 60,
        "2020-09": 73,
        "2020-08": 52,
        "2020-07": 75,
        "2020-06": 61,
        "2020-05": 49,
        "2020-04": 40,
        "2020-03": 26,
        "2020-02": 13,
        "2020-01": 16
    },
    "aggregate_stats": []
}